12

  20   100    20
  20   100    20
  20     5     0
   0     5    20
 -20   -10     0
   0     5   -20
  20     5     2
   5     3     1
  -5    -3    -1
 -20   -20   -10
 -20  -100   -20
 -20  -100   -20
